%YAML 1.1
%TAG !u! tag:unity3d.com,2011:
--- !u!1001 &286420799515921218
PrefabInstance:
  m_ObjectHideFlags: 0
  serializedVersion: 2
  m_Modification:
    m_TransformParent: {fileID: 0}
    m_Modifications:
    - target: {fileID: -8679921383154817045, guid: 5ab55c2e9d0f3974ba686721d23329de,
        type: 3}
      propertyPath: m_LocalPosition.x
      value: 0
      objectReference: {fileID: 0}
    - target: {fileID: -8679921383154817045, guid: 5ab55c2e9d0f3974ba686721d23329de,
        type: 3}
      propertyPath: m_LocalPosition.y
      value: 0
      objectReference: {fileID: 0}
    - target: {fileID: -8679921383154817045, guid: 5ab55c2e9d0f3974ba686721d23329de,
        type: 3}
      propertyPath: m_LocalPosition.z
      value: 0
      objectReference: {fileID: 0}
    - target: {fileID: -8679921383154817045, guid: 5ab55c2e9d0f3974ba686721d23329de,
        type: 3}
      propertyPath: m_LocalRotation.x
      value: 0
      objectReference: {fileID: 0}
    - target: {fileID: -8679921383154817045, guid: 5ab55c2e9d0f3974ba686721d23329de,
        type: 3}
      propertyPath: m_LocalRotation.y
      value: -0
      objectReference: {fileID: 0}
    - target: {fileID: -8679921383154817045, guid: 5ab55c2e9d0f3974ba686721d23329de,
        type: 3}
      propertyPath: m_LocalRotation.z
      value: -0
      objectReference: {fileID: 0}
    - target: {fileID: -8679921383154817045, guid: 5ab55c2e9d0f3974ba686721d23329de,
        type: 3}
      propertyPath: m_LocalRotation.w
      value: 1
      objectReference: {fileID: 0}
    - target: {fileID: -8679921383154817045, guid: 5ab55c2e9d0f3974ba686721d23329de,
        type: 3}
      propertyPath: m_RootOrder
      value: 0
      objectReference: {fileID: 0}
    - target: {fileID: -8679921383154817045, guid: 5ab55c2e9d0f3974ba686721d23329de,
        type: 3}
      propertyPath: m_LocalEulerAnglesHint.x
      value: 0
      objectReference: {fileID: 0}
    - target: {fileID: -8679921383154817045, guid: 5ab55c2e9d0f3974ba686721d23329de,
        type: 3}
      propertyPath: m_LocalEulerAnglesHint.y
      value: 0
      objectReference: {fileID: 0}
    - target: {fileID: -8679921383154817045, guid: 5ab55c2e9d0f3974ba686721d23329de,
        type: 3}
      propertyPath: m_LocalEulerAnglesHint.z
      value: 0
      objectReference: {fileID: 0}
    - target: {fileID: -8679921383154817045, guid: 5ab55c2e9d0f3974ba686721d23329de,
        type: 3}
      propertyPath: m_LocalScale.x
      value: 0.0029096885
      objectReference: {fileID: 0}
    - target: {fileID: -8679921383154817045, guid: 5ab55c2e9d0f3974ba686721d23329de,
        type: 3}
      propertyPath: m_LocalScale.y
      value: 0.0029096885
      objectReference: {fileID: 0}
    - target: {fileID: -8679921383154817045, guid: 5ab55c2e9d0f3974ba686721d23329de,
        type: 3}
      propertyPath: m_LocalScale.z
      value: 0.0029096885
      objectReference: {fileID: 0}
    - target: {fileID: 919132149155446097, guid: 5ab55c2e9d0f3974ba686721d23329de,
        type: 3}
      propertyPath: m_Name
      value: driver_Prefab
      objectReference: {fileID: 0}
    - target: {fileID: 2716581779497506624, guid: 5ab55c2e9d0f3974ba686721d23329de,
        type: 3}
      propertyPath: m_LocalPosition.x
      value: 843.59
      objectReference: {fileID: 0}
    - target: {fileID: 2716581779497506624, guid: 5ab55c2e9d0f3974ba686721d23329de,
        type: 3}
      propertyPath: m_LocalPosition.y
      value: -8.6387
      objectReference: {fileID: 0}
    - target: {fileID: 2716581779497506624, guid: 5ab55c2e9d0f3974ba686721d23329de,
        type: 3}
      propertyPath: m_LocalPosition.z
      value: -88.955
      objectReference: {fileID: 0}
    - target: {fileID: 2716581779497506624, guid: 5ab55c2e9d0f3974ba686721d23329de,
        type: 3}
      propertyPath: m_LocalScale.x
      value: 0.23895924
      objectReference: {fileID: 0}
    - target: {fileID: 2716581779497506624, guid: 5ab55c2e9d0f3974ba686721d23329de,
        type: 3}
      propertyPath: m_LocalScale.y
      value: 0.23895924
      objectReference: {fileID: 0}
    - target: {fileID: 2716581779497506624, guid: 5ab55c2e9d0f3974ba686721d23329de,
        type: 3}
      propertyPath: m_LocalScale.z
      value: 0.23895924
      objectReference: {fileID: 0}
    m_RemovedComponents: []
  m_SourcePrefab: {fileID: 100100000, guid: 5ab55c2e9d0f3974ba686721d23329de, type: 3}
